{"results":[{"popularity":191.806,"vote_count":317,"video":false,"poster_path":"\/xrI4EnZWftpo1B7tTvlMUXVOikd.jpg","id":340102,"adult":false,"backdrop_path":"\/eCIvqa3QVCx6H09bdeOS8Al2Sqy.jpg","original_language":"en","original_title":"The New Mutants","genre_ids":[28,12,27,878],"title":"The New Mutants","vote_average":5.8,"overview":"Five young mutants, just discovering their abilities while held in a secret facility against their will, fight to escape their past sins and save themselves.","release_date":"2020-08-26"},{"popularity":149.899,"vote_count":97,"video":false,"poster_path":"\/5mCqEeBA0MW7H6akFrFQXJu68rU.jpg","id":550231,"adult":false,"backdrop_path":"\/zRc6SG8V8WTTDrmZ78PgqjwYqoN.jpg","original_language":"en","original_title":"The Secret: Dare to Dream","genre_ids":[18,10749],"title":"The Secret: Dare to Dream","vote_average":8,"overview":"A widow with three children hires a handyman to fix her house during a major storm. When not doing home repairs, he shares his philosophy of believing in the power of the universe to deliver what we want.","release_date":"2020-04-16"},{"popularity":152.69,"vote_count":32,"video":false,"poster_path":"\/gxK2lB1w8an5ViPXzisDsRsyHr0.jpg","id":400160,"adult":false,"backdrop_path":"\/bt4xA9WZE9P1wiRILRFt0Zh2wmV.jpg","original_language":"en","original_title":"The SpongeBob Movie: Sponge on the Run","genre_ids":[12,16,35,14,10751],"title":"The SpongeBob Movie: Sponge on the Run","vote_average":6.6,"overview":"After SpongeBob's beloved pet snail Gary is snail-napped, he and Patrick embark on an epic adventure to The Lost City of Atlantic City to bring Gary home.","release_date":"2020-08-14"},{"popularity":165.501,"vote_count":74,"video":false,"poster_path":"\/yVsINl4Aa9vvQ9lE2LF77qNj7AP.jpg","id":617708,"adult":false,"backdrop_path":"\/oj9pEWQq5higRzKWiE8f0d5hBSb.jpg","original_language":"es","original_title":"La llorona","genre_ids":[18,27,53],"title":"La llorona","vote_average":6.1,"overview":"A tale of horror and fantasy, ripe with suspense, and an urgent metaphor of Guatemalan recent history and its unhealed political wounds.","release_date":"2020-01-22"},{"popularity":141.07,"vote_count":14,"video":false,"poster_path":"\/c59eplVELdwrUfGBUAZVin3HfaL.jpg","id":597398,"adult":false,"backdrop_path":"\/ccwPF5jN09S4Cz7u6qs3T2yKOpO.jpg","original_language":"en","original_title":"Away","genre_ids":[12,16,14],"title":"Away","vote_average":6.9,"overview":"After suffering a plane crash on a mysterious island, a young man embarks on an epic journey through forests, deserts and mountains trying to escape the shadow of a huge dark spirit.","release_date":"2019-11-15"},{"popularity":110.55,"id":528085,"video":false,"vote_count":5,"vote_average":5.3,"title":"2067","release_date":"2020-10-01","original_language":"en","original_title":"2067","genre_ids":[878,53],"backdrop_path":"\/5UkzNSOK561c2QRy2Zr4AkADzLT.jpg","adult":false,"overview":"A lowly utility worker is called to the future by a mysterious radio signal, he must leave his dying wife to embark on a journey that will force him to face his deepest fears in an attempt to change the fabric of reality and save humankind from its greatest environmental crisis yet.","poster_path":"\/7D430eqZj8y3oVkLFfsWXGRcpEG.jpg"},{"popularity":130.179,"vote_count":545,"video":false,"poster_path":"\/5ynWWapdl45hJXUh0KIevxSG9JQ.jpg","id":500840,"adult":false,"backdrop_path":"\/x3NqAzuTWvnron4pXXyFGkyTFo7.jpg","original_language":"en","original_title":"I'm Thinking of Ending Things","genre_ids":[18,53],"title":"I'm Thinking of Ending Things","vote_average":6.6,"overview":"Nothing is as it seems when a woman experiencing misgivings about her new boyfriend joins him on a road trip to meet his parents at their remote farm.","release_date":"2020-08-28"},{"popularity":148.639,"vote_count":2,"video":false,"poster_path":"\/tEvGSlRO0dz1pINzjSEELdTHvwk.jpg","id":737799,"adult":false,"backdrop_path":"\/ysGikUSBjG3NRSyycHPf4rsIXQm.jpg","original_language":"es","original_title":"Maquis","genre_ids":[18],"title":"Maquis","vote_average":4.5,"overview":"","release_date":"2020-08-28"},{"popularity":110.258,"vote_count":144,"video":false,"poster_path":"\/ow3OA6OC0rjgbMVaLn2drwjvqZE.jpg","id":582885,"adult":false,"backdrop_path":"\/onQmVQV2N2TYmMBtMZrrfx1BRFu.jpg","original_language":"fr","original_title":"Mignonnes","genre_ids":[18],"title":"Cuties","vote_average":5,"overview":"Amy, an 11-year-old girl, joins a group of dancers named “the cuties” at school, and rapidly grows aware of her burgeoning femininity—upsetting her mother and her values in the process.","release_date":"2020-08-19"},{"popularity":143.739,"vote_count":20,"video":false,"poster_path":"\/jkAZb9jteax1XRnEFlCU9Oer1YJ.jpg","id":610201,"adult":false,"backdrop_path":"\/ruXHUA3KiiLEjCwvSqKuxe9O6ZQ.jpg","original_language":"en","original_title":"The Pale Door","genre_ids":[27,37],"title":"The Pale Door","vote_average":5.5,"overview":"The Dalton gang escape to a nearby town after a train robbery goes south, but they are met by a coven of witches with sinister plans for the unsuspecting outlaws.","release_date":"2020-08-21"},{"popularity":102.239,"vote_count":8,"video":false,"poster_path":"\/pklyUbh4k1DbHdnsOMASyw7C6NH.jpg","id":737568,"adult":false,"backdrop_path":"\/9pHxv7TX0jOKNgnGMDP6RJ2m1GL.jpg","original_language":"en","original_title":"The Doorman","genre_ids":[28,53],"title":"The Doorman","vote_average":4,"overview":"A former Marine turned doorman at a luxury New York City high-rise must outsmart and battle a group of art thieves and their ruthless leader — while struggling to protect her sister's family. As the thieves become increasingly desperate and violent, the doorman calls upon her deadly fighting skills to end the showdown.","release_date":"2020-10-01"},{"popularity":119.908,"vote_count":5,"video":false,"poster_path":"\/opZKcgocttEOAUzqluX3bUbbDew.jpg","id":737173,"adult":false,"backdrop_path":null,"original_language":"es","original_title":"Maratón After","genre_ids":[],"title":"Maratón After","vote_average":7,"overview":"","release_date":"2020-09-03"},{"popularity":112.622,"vote_count":18,"video":false,"poster_path":"\/2wXrBtfrvwMWE1i3iHjKjoRZjYk.jpg","id":501953,"adult":false,"backdrop_path":"\/oeaLQKoPFQxvhEz3yyR1QuestXG.jpg","original_language":"en","original_title":"Eternal Beauty","genre_ids":[35,18],"title":"Eternal Beauty","vote_average":5.7,"overview":"When Jane is rejected by life, she spirals into a chaotic, schizophrenic world where love and normality collide with humorous consequences.","release_date":"2020-08-21"},{"popularity":115.853,"vote_count":147,"video":false,"poster_path":"\/zQFjMmE3K9AX5QrBL1SXIxYQ9jz.jpg","id":579583,"adult":false,"backdrop_path":"\/5rwcd24GGltKiqdPT4G2dmchLr9.jpg","original_language":"en","original_title":"The King of Staten Island","genre_ids":[35,18],"title":"The King of Staten Island","vote_average":6.8,"overview":"Scott has been a case of arrested development ever since his firefighter father died when he was seven. He’s now reached his mid-20s having achieved little, chasing a dream of becoming a tattoo artist that seems far out of reach. As his ambitious younger sister heads off to college, Scott is still living with his exhausted ER nurse mother and spends his days smoking weed, hanging with the guys — Oscar, Igor and Richie — and secretly hooking up with his childhood friend Kelsey. But when his mother starts dating a loudmouth firefighter named Ray, it sets off a chain of events that will force Scott to grapple with his grief and take his first tentative steps toward moving forward in life.","release_date":"2020-07-22"},{"popularity":121.79,"vote_count":69,"video":false,"poster_path":"\/cgC67SOxd9xkjN4Bnvjtuj1vI8T.jpg","id":663459,"adult":false,"backdrop_path":"\/vLX1fc75h4CJVjAXPth1SlByBTq.jpg","original_language":"en","original_title":"Jungle Beat: The Movie","genre_ids":[16],"title":"Jungle Beat: The Movie","vote_average":7.4,"overview":"The Jungle Beat animals think it’s the best thing ever when an alien arrives in the jungle bringing with him the power of speech. They also surprisingly think it’s the best thing ever when they find out that he’s been sent to conquer them.","release_date":"2020-06-26"},{"popularity":128.469,"vote_count":57,"video":false,"poster_path":"\/erl30EcM8b8S84mvw8QXhNIeSfi.jpg","id":659991,"adult":false,"backdrop_path":"\/5nRyaVklxyA9OkxqZaPv1KBRqpd.jpg","original_language":"en","original_title":"Made in Italy","genre_ids":[35,18],"title":"Made in Italy","vote_average":6.1,"overview":"A bohemian artist travels from London to Italy with his estranged son to sell the house they inherited from his late wife.","release_date":"2020-08-06"},{"popularity":113.619,"vote_count":1081,"video":false,"poster_path":"\/swmjF0CQc59K3jdUFzOirXESeGN.jpg","id":449924,"adult":false,"backdrop_path":"\/hb3kjSQI0lwGUCIxnfAYec08VSq.jpg","original_language":"cn","original_title":"葉問4","genre_ids":[28,18,36],"title":"Ip Man 4: The Finale","vote_average":7.2,"overview":"Following the death of his wife, Ip Man travels to San Francisco to ease tensions between the local kung fu masters and his star student, Bruce Lee, while searching for a better future for his son.","release_date":"2019-12-19"},{"popularity":111.527,"vote_count":62,"video":false,"poster_path":"\/yUFbPtWeDbVR3zmqshOaL5lScyo.jpg","id":425001,"adult":false,"backdrop_path":"\/4gKyQ1McHa8ZKDsYoyKQSevF01J.jpg","original_language":"en","original_title":"The War with Grandpa","genre_ids":[35,18,10751],"title":"The War with Grandpa","vote_average":6.2,"overview":"Sixth-grader Peter is pretty much your average kid—he likes gaming, hanging with his friends and his beloved pair of Air Jordans. But when his recently widowed grandfather Ed  moves in with Peter’s family, the boy is forced to give up his most prized possession of all, his bedroom. Unwilling to let such an injustice stand, Peter devises a series of increasingly elaborate pranks to drive out the interloper, but Grandpa Ed won’t go without a fight.","release_date":"2020-01-31"},{"popularity":90.64,"vote_count":105,"video":false,"poster_path":"\/sA154deR0X51EcR2lm2FfDczryg.jpg","id":524047,"adult":false,"backdrop_path":"\/zBu96naACVg7AVwkUaAUwlo6sC3.jpg","original_language":"en","original_title":"Greenland","genre_ids":[28,53],"title":"Greenland","vote_average":6,"overview":"A detached married couple must get their son and themselves to safety after being randomly selected to enter an underground bunker, as a massive object from space threatens to destroy the world in less than 48 hours.","release_date":"2020-07-29"},{"popularity":126.064,"vote_count":7,"video":false,"poster_path":"\/iSwTnNS7TKAS79Sz9LvyqlBxxrU.jpg","id":547017,"adult":false,"backdrop_path":"\/97UR8xPpUNqpvx5zr7eyf4YSBCE.jpg","original_language":"en","original_title":"Shirley","genre_ids":[18,53],"title":"Shirley","vote_average":6.7,"overview":"A famous horror writer finds inspiration for her next book after she and her husband take in a young couple.","release_date":"2020-09-11"}],"page":2,"total_results":1288,"dates":{"maximum":"2020-10-03","minimum":"2020-08-16"},"total_pages":65}