{"page":5,"total_results":10000,"total_pages":500,"results":[{"popularity":151.972,"vote_count":11,"video":false,"poster_path":"\/vG8qBkByy9naORB6zahcntIC2N.jpg","id":679796,"adult":false,"backdrop_path":"\/eTb7csUniZdYr4dXGJYuLJRRBvm.jpg","original_language":"en","original_title":"Enemy Lines","genre_ids":[28,10752],"title":"Enemy Lines","vote_average":6.2,"overview":"In the frozen, war torn landscape of occupied Poland during World War II, a crack team of allied commandos are sent on a deadly mission behind enemy lines to extract a rocket scientist from the hands of the Nazis.","release_date":"2020-04-24"},{"popularity":193.293,"vote_count":1943,"video":false,"poster_path":"\/k68nPLbIST6NP96JmTxmZijEvCA.jpg","id":577922,"adult":false,"backdrop_path":"\/wzJRB4MKi3yK138bJyuL9nx47y6.jpg","original_language":"en","original_title":"Tenet","genre_ids":[28,878,53],"title":"Tenet","vote_average":7.5,"overview":"Armed with only one word - Tenet - and fighting for the survival of the entire world, the Protagonist journeys through a twilight world of international espionage on a mission that will unfold in something beyond real time.","release_date":"2020-08-22"},{"popularity":192.083,"vote_count":53,"video":false,"poster_path":"\/iFGU4UOXlxd0S4ohJI6TmoCTQrk.jpg","id":565840,"adult":false,"backdrop_path":"\/4tSZO8H25jwd5QDoM9EVcSAzeH1.jpg","original_language":"en","original_title":"The Immortal Wars: Resurgence","genre_ids":[28,878],"title":"The Immortal Wars: Resurgence","vote_average":6,"overview":"The war for freedom has just begun. Trikalypse joins forces with the rebel leader and her team of freedom fighters. They must now fight back to bring Dominion down and expose him to the world.","release_date":"2019-12-13"},{"popularity":191.319,"vote_count":6869,"video":false,"poster_path":"\/dzBtMocZuJbjLOXvrl4zGYigDzh.jpg","id":420818,"adult":false,"backdrop_path":"\/nRXO2SnOA75OsWhNhXstHB8ZmI3.jpg","original_language":"en","original_title":"The Lion King","genre_ids":[12,10402,10751],"title":"The Lion King","vote_average":7.2,"overview":"Simba idolizes his father, King Mufasa, and takes to heart his own royal destiny. But not everyone in the kingdom celebrates the new cub's arrival. Scar, Mufasa's brother—and former heir to the throne—has plans of his own. The battle for Pride Rock is ravaged with betrayal, tragedy and drama, ultimately resulting in Simba's exile. With help from a curious pair of newfound friends, Simba will have to figure out how to grow up and take back what is rightfully his.","release_date":"2019-07-12"},{"popularity":190.981,"vote_count":12257,"video":false,"poster_path":"\/eKi8dIrr8voobbaGzDpe8w0PVbC.jpg","id":354912,"adult":false,"backdrop_path":"\/gKZAQ3b9yApxFunUBlS5Mp74QG4.jpg","original_language":"en","original_title":"Coco","genre_ids":[12,16,35,14,10751],"title":"Coco","vote_average":8.2,"overview":"Despite his family’s baffling generations-old ban on music, Miguel dreams of becoming an accomplished musician like his idol, Ernesto de la Cruz. Desperate to prove his talent, Miguel finds himself in the stunning and colorful Land of the Dead following a mysterious chain of events. Along the way, he meets charming trickster Hector, and together, they set off on an extraordinary journey to unlock the real story behind Miguel's family history.","release_date":"2017-10-27"},{"popularity":190.739,"vote_count":3456,"video":false,"poster_path":"\/mb7wQv0adK3kjOUr9n93mANHhPJ.jpg","id":583083,"adult":false,"backdrop_path":"\/wO5QSWZPBT71gMLvrRex0bVc0V9.jpg","original_language":"en","original_title":"The Kissing Booth 2","genre_ids":[35,10749],"title":"The Kissing Booth 2","vote_average":8.1,"overview":"With college decisions looming, Elle juggles her long-distance romance with Noah, changing relationship with bestie Lee and feelings for a new classmate.","release_date":"2020-07-24"},{"popularity":187.873,"vote_count":211,"video":false,"poster_path":"\/4V2nTPfeB59TcqJcUfQ9ziTi7VN.jpg","id":501979,"adult":false,"backdrop_path":"\/oazPqs1z78LcIOFslbKtJLGlueo.jpg","original_language":"en","original_title":"Bill & Ted Face the Music","genre_ids":[12,35,878],"title":"Bill & Ted Face the Music","vote_average":6.4,"overview":"Yet to fulfill their rock and roll destiny, the now middle-aged best friends Bill and Ted set out on a new adventure when a visitor from the future warns them that only their song can save life as we know it. Along the way, they are helped by their daughters, a new batch of historical figures and a few music legends—to seek the song that will set their world right and bring harmony to the universe.","release_date":"2020-08-27"},{"popularity":186.034,"vote_count":15220,"video":false,"poster_path":"\/or06FN3Dka5tukK1e9sl16pB3iy.jpg","id":299534,"adult":false,"backdrop_path":"\/orjiB3oUIsyz60hoEqkiGpy5CeO.jpg","original_language":"en","original_title":"Avengers: Endgame","genre_ids":[28,12,878],"title":"Avengers: Endgame","vote_average":8.3,"overview":"After the devastating events of Avengers: Infinity War, the universe is in ruins due to the efforts of the Mad Titan, Thanos. With the help of remaining allies, the Avengers must assemble once more in order to undo Thanos' actions and restore order to the universe once and for all, no matter what consequences may be in store.","release_date":"2019-04-24"},{"popularity":155.577,"vote_count":26,"video":false,"poster_path":"\/AiymaaYeAl9ZBoyUz2tz4k2XaKv.jpg","id":702936,"adult":false,"backdrop_path":"\/3BGmOsQWzz9u8RE133ROYWiG51y.jpg","original_language":"en","original_title":"Sniper: Assassin's End","genre_ids":[28],"title":"Sniper: Assassin's End","vote_average":5.8,"overview":"Special Ops sniper Brandon Beckett is set up as the primary suspect for the murder of a foreign dignitary on the eve of signing a high-profile trade agreement with the United States. Narrowly escaping death, Beckett realizes that there may be a dark operative working within the government, and partners with the only person whom he can trust: his father, legendary sniper Sgt. Thomas Beckett. Both Becketts are on the run from the CIA, Russian mercenaries and Lady Death, a Yakuza-trained assassin with sniper skills that rival both legendary sharpshooters.","release_date":"2020-06-15"},{"popularity":185.879,"vote_count":170,"video":false,"poster_path":"\/oxxIOWDP6beG37VG3jMxE77pRwC.jpg","id":417466,"adult":false,"backdrop_path":"\/hmOrnAImC8QVRurauDcK0l3jjyw.jpg","original_language":"es","original_title":"Monos","genre_ids":[18,53],"title":"Monos","vote_average":6.9,"overview":"On a faraway mountaintop, eight kids with guns watch over a hostage and a conscripted milk cow.","release_date":"2019-09-05"},{"popularity":149.899,"vote_count":19,"video":false,"poster_path":"\/tKifV12YHiIxVH5z8NiGu0BCYRf.jpg","id":631939,"adult":false,"backdrop_path":"\/rVkFyBf5Ery4j4gVZU79dt3jayW.jpg","original_language":"en","original_title":"Legionnaire's Trail","genre_ids":[28,12,36],"title":"Legionnaire's Trail","vote_average":5.5,"overview":"Noreno, a half-Roman, is entrusted with the mission of crossing the snowy mountains of Armenia, swarming with Parthian patrols, to seek help for his slowly dying men.","release_date":"2020-05-08"},{"popularity":135.692,"vote_count":42,"video":false,"poster_path":"\/pZMFUQ3iw9ST9e1v0F8qxLwWg0D.jpg","id":703155,"adult":false,"backdrop_path":"\/eqJKQrZv25ojMNzqap5v1IdcTQM.jpg","original_language":"es","original_title":"El encanto","genre_ids":[18],"title":"El encanto","vote_average":6.4,"overview":"Bruno is thirty years old and has a girlfriend, Juliana, with whom he is about to celebrate a decade of love.He loves her, but feels that she no longer captivates him. She wants to be a mother. He doesn't know if he wants to take that step. He fears it could be a mistake, perhaps Juliana is not the woman of his life or perhaps it is too soon. To make matters worse, he is attracted to Lara, his new sexy and young employee. Further confused, Bruno only finds comfort in the company of his father and his old bass. This confusion pushes Bruno to reunite with an old love: music.","release_date":"2020-07-30"},{"popularity":179.96,"vote_count":28,"video":false,"poster_path":"\/2LXQUhkzo27jKotK7poHkNaw59B.jpg","id":582218,"adult":false,"backdrop_path":"\/9OqyNSGlS9EvT6cA9zmKOmr65d3.jpg","original_language":"en","original_title":"Psych 2: Lassie Come Home","genre_ids":[28,35,80],"title":"Psych 2: Lassie Come Home","vote_average":7.4,"overview":"After Santa Barbara Police Chief Carlton Lassiter is ambushed and left for dead, Shawn and Gus return to help him and find themselves embroiled in a case involving the personal, the professional—and even the supernatural.","release_date":"2020-07-15"},{"popularity":168.141,"vote_count":239,"video":false,"poster_path":"\/k6fgOq7wPKujibXGWYlcIBgkcwQ.jpg","id":673595,"adult":false,"backdrop_path":"\/y6J8TOnSUscFeMgvWxc6xeEEXo7.jpg","original_language":"en","original_title":"Playdate with Destiny","genre_ids":[16,35,10751],"title":"Playdate with Destiny","vote_average":7.6,"overview":"Maggie and Marge are having a play-date at Springfield's finest toddler play park when Maggie becomes smitten with a little boy. It's love at first suck and Maggie dreams about seeing him again after a day full of make-believe romance.","release_date":"2020-02-29"},{"popularity":149.554,"vote_count":495,"video":false,"poster_path":"\/8Ga1CI4ZIIF8fxyfjZ5sNlb75e4.jpg","id":667520,"adult":false,"backdrop_path":"\/eHTZoXmB4vnDqANZXPZcdAiYQo5.jpg","original_language":"ja","original_title":"泣きたい私は猫をかぶる","genre_ids":[16,18,14,10749],"title":"A Whisker Away","vote_average":8.1,"overview":"Miyo \"Muge\" Sasaki is a peculiar second-year junior high student who has fallen in love with her classmate Kento Hinode. Muge resolutely pursues Kento every day, but he takes no notice of her. Nevertheless, while carrying a secret she can tell no one, Muge continues to pursue Kento. Muge discovers a magic mask that allows her to transform into a cat named Tarō. The magic lets Muge get close to Kento, but eventually it may also make her unable to transform back to a human.","release_date":"2020-06-18"},{"popularity":176.321,"vote_count":318,"video":false,"poster_path":"\/xrI4EnZWftpo1B7tTvlMUXVOikd.jpg","id":340102,"adult":false,"backdrop_path":"\/eCIvqa3QVCx6H09bdeOS8Al2Sqy.jpg","original_language":"en","original_title":"The New Mutants","genre_ids":[28,12,27,878],"title":"The New Mutants","vote_average":5.8,"overview":"Five young mutants, just discovering their abilities while held in a secret facility against their will, fight to escape their past sins and save themselves.","release_date":"2020-08-26"},{"popularity":175.218,"vote_count":6075,"video":false,"poster_path":"\/w9kR8qbmQ01HwnvK4alvnQ2ca0L.jpg","id":301528,"adult":false,"backdrop_path":"\/q62bpQ67qaXY0u6b2wFEnQYIbPd.jpg","original_language":"en","original_title":"Toy Story 4","genre_ids":[12,16,35,14,10751],"title":"Toy Story 4","vote_average":7.6,"overview":"Woody has always been confident about his place in the world and that his priority is taking care of his kid, whether that's Andy or Bonnie. But when Bonnie adds a reluctant new toy called \"Forky\" to her room, a road trip adventure alongside old and new friends will show Woody how big the world can be for a toy.","release_date":"2019-06-19"},{"popularity":174.071,"vote_count":6982,"video":false,"poster_path":"\/ykUEbfpkf8d0w49pHh0AD2KrT52.jpg","id":420817,"adult":false,"backdrop_path":"\/k40PQsaXYDXY2czuLXzCvL5BVpo.jpg","original_language":"en","original_title":"Aladdin","genre_ids":[12,14,10749,10751],"title":"Aladdin","vote_average":7.2,"overview":"A kindhearted street urchin named Aladdin embarks on a magical adventure after finding a lamp that releases a wisecracking genie while a power-hungry Grand Vizier vies for the same lamp that has the power to make their deepest wishes come true.","release_date":"2019-05-22"},{"popularity":172.908,"vote_count":32,"video":false,"poster_path":"\/6VkE7YZKkolB2gTlVYCKjr92ma1.jpg","id":567971,"adult":false,"backdrop_path":"\/fvmMtehtEL50A5DqwCoGpTIuVQB.jpg","original_language":"en","original_title":"Vampires vs. the Bronx","genre_ids":[35,27],"title":"Vampires vs. the Bronx","vote_average":6.3,"overview":"Three gutsy kids from a rapidly gentrifying Bronx neighborhood stumble upon a sinister plot to suck all the life from their beloved community.","release_date":"2020-10-02"},{"popularity":170.673,"vote_count":130,"video":false,"poster_path":"\/97pM35EA3gRzuZsGndoq7xljE1X.jpg","id":616803,"adult":false,"backdrop_path":"\/ApAK5KptmhTNjPslGAivKdlY1og.jpg","original_language":"sv","original_title":"Breaking Surface","genre_ids":[28,18,53],"title":"Breaking Surface","vote_average":7.3,"overview":"Two Swedish\/Norwegian half sisters go on a winter diving trip in Northern Norway, when they get trapped after a rockslide.","release_date":"2020-02-14"}]}